// Jest Snapshot v1, https://goo.gl/fbAQLP

exports[`SearchBox should be rendered 1`] = `
<form
  class="form"
  data-testid="form-search"
  role="search"
>
  <div
    class="text-field text-field__has-icon"
  >
    <input
      aria-autocomplete="list"
      class="text-field__input"
      type="text"
      value=""
    />
    
    <button
      aria-label="zoeken"
      class="button button--has-icon form__submit-icon"
      data-testid="submit"
      tabindex="0"
      type="submit"
    >
      <i
        class="material-icons icon "
      >
        search
      </i>
    </button>
  </div>
</form>
`;
